<?xml version="1.0" encoding="UTF-8" standalone="no"?>
<svg
   xmlns:dc="http://purl.org/dc/elements/1.1/"
   xmlns:cc="http://creativecommons.org/ns#"
   xmlns:rdf="http://www.w3.org/1999/02/22-rdf-syntax-ns#"
   xmlns:svg="http://www.w3.org/2000/svg"
   xmlns="http://www.w3.org/2000/svg"
   xmlns:sodipodi="http://sodipodi.sourceforge.net/DTD/sodipodi-0.dtd"
   xmlns:inkscape="http://www.inkscape.org/namespaces/inkscape"
   id="svg6"
   viewBox="0 -492 1836 2048"
   version="1.1"
   sodipodi:docname="white_king.svg"
   inkscape:version="0.92.4 5da689c313, 2019-01-14">
  <sodipodi:namedview
     pagecolor="#ffffff"
     bordercolor="#666666"
     borderopacity="1"
     objecttolerance="10"
     gridtolerance="10"
     guidetolerance="10"
     inkscape:pageopacity="0"
     inkscape:pageshadow="2"
     inkscape:window-width="1918"
     inkscape:window-height="1078"
     id="namedview21"
     showgrid="false"
     inkscape:zoom="0.11523438"
     inkscape:cx="935.35593"
     inkscape:cy="1024"
     inkscape:window-x="0"
     inkscape:window-y="0"
     inkscape:window-maximized="0"
     inkscape:current-layer="svg6" />
  <metadata
     id="metadata12">
    <rdf:RDF>
      <cc:Work
         rdf:about="">
        <dc:format>image/svg+xml</dc:format>
        <dc:type
           rdf:resource="http://purl.org/dc/dcmitype/StillImage" />
        <dc:title />
      </cc:Work>
    </rdf:RDF>
  </metadata>
  <defs
     id="defs10" />
  <g
     id="g4"
     transform="matrix(1,0,0,-1,0,1280)"
     style="fill:#ffffff">
    <path
       style="fill:#ffffff"
       id="path2"
       d="m 848,967 q 1,3 3,6 -35,43 -86,71 -74,41 -152,41 -78,0 -151.5,-40.5 Q 388,1004 346,929.5 304,855 304,775 q 0,-81 41,-154 41,-73 115,-113 22,-14 45,-22 H 848 Z M 989,486 h 342 q 24,8 46,22 74,40 114.5,113 40.5,73 40.5,154 0,80 -41.5,154.5 -41.5,74.5 -115,115 -73.5,40.5 -152.5,40.5 -77,0 -151,-41 -52,-28 -86,-71 2,-3 3,-6 z M 540,383 V 80 h 757 V 383 Z M 458,0 v 383 q -42,13 -80,35 -69,54 -123,152 -54,98 -54,205 0,108 55,206.5 55,98.5 154,151.5 99,53 203,53 80,0 156,-31 v 2 q 0,36 18,67.5 18,31.5 50,49.5 13,7 29,11 v 54 H 758 v 70 h 108 v 87 h 105 v -87 h 108 v -70 H 971 v -54 q 16,-4 29,-11 31,-18 49.5,-49.5 18.5,-31.5 18.5,-67.5 v -2 q 76,31 155,31 104,0 203,-53 99,-53 154,-151.5 55,-98.5 55,-206.5 0,-107 -54,-205 -54,-98 -122,-152 -39,-22 -80,-35 V 0 Z m 367,1149 q 0,-25 12.5,-46.5 12.5,-21.5 35,-34 22.5,-12.5 45.5,-12.5 24,0 46.5,12.5 22.5,12.5 34.5,34 12,21.5 12,46.5 0,24 -12,46.5 -12,22.5 -34.5,34 -22.5,11.5 -46.5,11.5 -23,0 -45.5,-11.5 -22.5,-11.5 -35,-34 Q 825,1173 825,1149 Z" />
  </g>
</svg>
